[
    {
        "id": "#button-621",
        "title": "Button"
    },
    {
        "id": "#header-625",
        "title": "Header"
    },
    {
        "id": "#list-item-625",
        "title": "List item"
    },
    {
        "id": "#list-625",
        "title": "List"
    }
]